{
    "fluentMethods": true,
    "relationships": [
        {
            "relationshipName": "practitioner",
            "otherEntityName": "practitioner",
            "relationshipType": "many-to-one",
            "ownerSide": false,
            "otherEntityField" : "id",
            "otherEntityRelationshipName": "practitionerRoles"
        },
        {
            "relationshipName": "role",
            "otherEntityName": "role",
            "relationshipType": "many-to-one",
            "ownerSide": false,
            "otherEntityField" : "id",
            "otherEntityRelationshipName": "practitionerRoles"
        },
        {
            "relationshipName": "centre",
            "otherEntityName": "trialCentre",
            "relationshipType": "many-to-one",
            "ownerSide": false,
            "otherEntityField" : "id",
            "otherEntityRelationshipName": "practitionerRoles"
        },
        {
            "relationshipName": "trial",
            "otherEntityName": "trial",
            "relationshipType": "one-to-many",
            "ownerSide": false,
            "otherEntityField" : "name",
            "otherEntityRelationshipName": "chiefInvestigator"
        }
    ],
    "fields": [],
    "changelogDate": "20170220075557",
    "dto": "no",
    "service": "serviceImpl",
    "entityTableName": "practitioner_role",
    "pagination": "infinite-scroll"
}
